MODE 0
SIZE 8/7
LIMIT 0/19
COLOR LIMIT 5
STARS 500/1000/1300
COLLECT COUNT 0/0
COLLECT ITEMS 0/0
00 00 10 10 10 10 00 00
10 10 10 10 10 10 10 10
10 10 10 10 10 10 10 10
00 17 17 17 17 17 17 00
00 10 10 10 10 10 10 00
10 10 10 10 10 10 10 10
00 00 10 10 10 10 00 00